<?xml version="1.0" encoding="UTF-8" standalone="no"?>
<!-- Created with Inkscape (http://www.inkscape.org/) -->

<svg
   xmlns:dc="http://purl.org/dc/elements/1.1/"
   xmlns:cc="http://creativecommons.org/ns#"
   xmlns:rdf="http://www.w3.org/1999/02/22-rdf-syntax-ns#"
   xmlns:svg="http://www.w3.org/2000/svg"
   xmlns="http://www.w3.org/2000/svg"
   xmlns:sodipodi="http://sodipodi.sourceforge.net/DTD/sodipodi-0.dtd"
   xmlns:inkscape="http://www.inkscape.org/namespaces/inkscape"
   width="90"
   height="90"
   id="svg4874"
   version="1.1"
   inkscape:version="0.48.4 r9939"
   viewBox="0 0 90 90.000001"
   sodipodi:docname="stock_image.svg">
  <defs
     id="defs4876" />
  <sodipodi:namedview
     id="base"
     pagecolor="#ffffff"
     bordercolor="#666666"
     borderopacity="1.0"
     inkscape:pageopacity="0.0"
     inkscape:pageshadow="2"
     inkscape:zoom="5.0931703"
     inkscape:cx="39.892308"
     inkscape:cy="42.341015"
     inkscape:document-units="px"
     inkscape:current-layer="g4480"
     showgrid="true"
     showborder="true"
     fit-margin-top="0"
     fit-margin-left="0"
     fit-margin-right="0"
     fit-margin-bottom="0"
     inkscape:snap-bbox="true"
     inkscape:bbox-paths="true"
     inkscape:bbox-nodes="true"
     inkscape:snap-bbox-edge-midpoints="true"
     inkscape:snap-bbox-midpoints="true"
     inkscape:object-paths="true"
     inkscape:snap-intersection-paths="true"
     inkscape:object-nodes="true"
     inkscape:snap-smooth-nodes="true"
     inkscape:snap-midpoints="true"
     inkscape:snap-object-midpoints="true"
     inkscape:snap-center="true"
     showguides="true"
     inkscape:guide-bbox="true"
     inkscape:window-width="925"
     inkscape:window-height="612"
     inkscape:window-x="0"
     inkscape:window-y="24"
     inkscape:window-maximized="0">
    <inkscape:grid
       type="xygrid"
       id="grid5451"
       empspacing="6" />
    <sodipodi:guide
       orientation="1,0"
       position="6,77"
       id="guide4063" />
    <sodipodi:guide
       orientation="1,0"
       position="3,78"
       id="guide4065" />
    <sodipodi:guide
       orientation="0,1"
       position="55,84"
       id="guide4067" />
    <sodipodi:guide
       orientation="0,1"
       position="53,87"
       id="guide4069" />
    <sodipodi:guide
       orientation="0,1"
       position="20,3"
       id="guide4071" />
    <sodipodi:guide
       orientation="0,1"
       position="20,6"
       id="guide4073" />
    <sodipodi:guide
       orientation="1,0"
       position="87,7"
       id="guide4075" />
    <sodipodi:guide
       orientation="1,0"
       position="84,7"
       id="guide4077" />
    <sodipodi:guide
       orientation="0,1"
       position="58,81"
       id="guide4074" />
    <sodipodi:guide
       orientation="1,0"
       position="9,74"
       id="guide4076" />
    <sodipodi:guide
       orientation="0,1"
       position="21,9"
       id="guide4078" />
    <sodipodi:guide
       orientation="1,0"
       position="81,4"
       id="guide4080" />
  </sodipodi:namedview>
  <metadata
     id="metadata4879">
    <rdf:RDF>
      <cc:Work
         rdf:about="">
        <dc:format>image/svg+xml</dc:format>
        <dc:type
           rdf:resource="http://purl.org/dc/dcmitype/StillImage" />
        <dc:title></dc:title>
      </cc:Work>
    </rdf:RDF>
  </metadata>
  <g
     inkscape:label="Layer 1"
     inkscape:groupmode="layer"
     id="layer1"
     transform="translate(67.857146,-84.50504)">
    <g
       transform="matrix(0,-1,-1,0,373.50506,516.50504)"
       id="g4845"
       style="display:inline">
      <g
         transform="matrix(0,-1,-1,0,-173.6378,899.36221)"
         id="g4480">
        <rect
           style="fill:none;stroke:none"
           id="rect4512"
           width="90"
           height="90"
           x="458"
           y="-605.63782" />
        <path
           sodipodi:nodetypes="cccccccccc"
           inkscape:connector-curvature="0"
           id="rect4520"
           d="m 463.99999,-599.63867 0,78 78,0 0,-78 z m 6,6 66,0 0,57 -66,0 z"
           style="color:#000000;fill:#808080;fill-opacity:1;fill-rule:nonzero;stroke:none;stroke-width:4;marker:none;visibility:visible;display:inline;overflow:visible;enable-background:accumulate" />
        <rect
           transform="matrix(0,1,-1,0,0,0)"
           y="-534.5401"
           x="-596.37109"
           height="66.000008"
           width="65.9739"
           id="rect4120"
           style="color:#000000;fill:none;stroke:none;stroke-width:4;marker:none;visibility:visible;display:inline;overflow:visible;enable-background:accumulate" />
        <path
           sodipodi:nodetypes="ccccccccccccccccc"
           inkscape:connector-curvature="0"
           id="path4122"
           d="m 516.93582,-556.67803 c -2.02931,2.93132 -4.23803,5.47156 -6.34362,7.64271 l 0.007,0 c -3.85585,3.808 -9.04063,8.35455 -9.04063,8.35455 0,0 -5.49535,-4.4661 -9.07357,-8.34882 l 0.007,0 c -2.10298,-2.16828 -4.31028,-4.70458 -6.33789,-7.63124 -0.0905,0.0346 -0.18329,0.0636 -0.27357,0.0988 -4.88491,1.85153 -9.19837,4.3136 -12.94081,7.38633 l 0,14.40455 20.24688,0 0.0258,0 16.65469,0 20.27265,0 0,-14.40455 c -3.74242,-3.07273 -8.03513,-5.5348 -12.88059,-7.38633 -0.10686,-0.0414 -0.21651,-0.0756 -0.3237,-0.11602 z"
           style="font-size:15.00296783px;font-style:normal;font-variant:normal;font-weight:normal;font-stretch:normal;text-align:center;line-height:125%;letter-spacing:0px;word-spacing:0px;writing-mode:lr-tb;text-anchor:middle;fill:#808080;fill-opacity:1;stroke:none;display:inline;font-family:Ubuntu;-inkscape-font-specification:Ubuntu" />
        <path
           inkscape:connector-curvature="0"
           style="font-size:121.62958527px;font-style:normal;font-variant:normal;font-weight:normal;font-stretch:normal;text-align:center;line-height:125%;letter-spacing:0px;word-spacing:0px;writing-mode:lr-tb;text-anchor:middle;fill:#808080;fill-opacity:1;stroke:none;display:inline;font-family:Ubuntu;-inkscape-font-specification:Ubuntu"
           d="m 501.53869,-591.94821 c -4.52779,3.9e-4 -8.90586,1.91037 -12.10717,5.28049 -3.2018,3.37062 -5.01445,7.97892 -5.01445,12.7442 l 0,0.0144 c 0.007,1.83469 0.17209,3.94603 1.03698,6.08765 2.25478,5.58325 5.63539,9.91885 8.72265,13.2698 l -0.006,0 c 0.85256,0.97389 1.82433,1.96286 2.79297,2.91387 l 9.03633,0 c 0.98081,-0.95908 1.98306,-1.95402 2.91184,-2.91965 l -0.007,0 c 3.08629,-3.35016 6.46583,-7.68281 8.71979,-13.26402 0.8648,-2.14139 1.03021,-4.25244 1.03698,-6.08765 l 0,-0.0144 c 0,-4.76611 -1.81447,-9.374 -5.01589,-12.7442 -3.20092,-3.36969 -7.57793,-5.2801 -12.10573,-5.28049 l -10e-4,0 z"
           id="path4124" />
      </g>
    </g>
  </g>
</svg>
