<?xml version="1.0" encoding="UTF-8" standalone="no"?>
<!-- Created with Inkscape (http://www.inkscape.org/) -->

<svg
   xmlns:dc="http://purl.org/dc/elements/1.1/"
   xmlns:cc="http://creativecommons.org/ns#"
   xmlns:rdf="http://www.w3.org/1999/02/22-rdf-syntax-ns#"
   xmlns:svg="http://www.w3.org/2000/svg"
   xmlns="http://www.w3.org/2000/svg"
   xmlns:sodipodi="http://sodipodi.sourceforge.net/DTD/sodipodi-0.dtd"
   xmlns:inkscape="http://www.inkscape.org/namespaces/inkscape"
   width="90"
   height="90"
   id="svg4874"
   version="1.1"
   inkscape:version="0.48.4 r9939"
   viewBox="0 0 90 90.000001"
   sodipodi:docname="version-best.svg">
  <defs
     id="defs4876" />
  <sodipodi:namedview
     id="base"
     pagecolor="#ffffff"
     bordercolor="#666666"
     borderopacity="1.0"
     inkscape:pageopacity="0.0"
     inkscape:pageshadow="2"
     inkscape:zoom="5.0931704"
     inkscape:cx="-10.690787"
     inkscape:cy="47.102293"
     inkscape:document-units="px"
     inkscape:current-layer="g1311"
     showgrid="true"
     showborder="true"
     fit-margin-top="0"
     fit-margin-left="0"
     fit-margin-right="0"
     fit-margin-bottom="0"
     inkscape:snap-bbox="true"
     inkscape:bbox-paths="true"
     inkscape:bbox-nodes="true"
     inkscape:snap-bbox-edge-midpoints="true"
     inkscape:snap-bbox-midpoints="true"
     inkscape:object-paths="true"
     inkscape:snap-intersection-paths="true"
     inkscape:object-nodes="true"
     inkscape:snap-smooth-nodes="true"
     inkscape:snap-midpoints="true"
     inkscape:snap-object-midpoints="true"
     inkscape:snap-center="true"
     showguides="true"
     inkscape:guide-bbox="true"
     inkscape:window-width="1871"
     inkscape:window-height="1056"
     inkscape:window-x="49"
     inkscape:window-y="24"
     inkscape:window-maximized="1">
    <inkscape:grid
       type="xygrid"
       id="grid5451"
       empspacing="6" />
    <sodipodi:guide
       orientation="1,0"
       position="6,77"
       id="guide4063" />
    <sodipodi:guide
       orientation="1,0"
       position="3,78"
       id="guide4065" />
    <sodipodi:guide
       orientation="0,1"
       position="55,84"
       id="guide4067" />
    <sodipodi:guide
       orientation="0,1"
       position="53,87"
       id="guide4069" />
    <sodipodi:guide
       orientation="0,1"
       position="20,3"
       id="guide4071" />
    <sodipodi:guide
       orientation="0,1"
       position="20,6"
       id="guide4073" />
    <sodipodi:guide
       orientation="1,0"
       position="87,7"
       id="guide4075" />
    <sodipodi:guide
       orientation="1,0"
       position="84,7"
       id="guide4077" />
    <sodipodi:guide
       orientation="0,1"
       position="58,81"
       id="guide4074" />
    <sodipodi:guide
       orientation="1,0"
       position="9,74"
       id="guide4076" />
    <sodipodi:guide
       orientation="0,1"
       position="21,9"
       id="guide4078" />
    <sodipodi:guide
       orientation="1,0"
       position="81,4"
       id="guide4080" />
  </sodipodi:namedview>
  <metadata
     id="metadata4879">
    <rdf:RDF>
      <cc:Work
         rdf:about="">
        <dc:format>image/svg+xml</dc:format>
        <dc:type
           rdf:resource="http://purl.org/dc/dcmitype/StillImage" />
        <dc:title />
      </cc:Work>
    </rdf:RDF>
  </metadata>
  <g
     inkscape:label="Layer 1"
     inkscape:groupmode="layer"
     id="layer1"
     transform="translate(67.857146,-84.50504)">
    <g
       transform="matrix(0,-1,-1,0,373.50506,516.50504)"
       id="g4845"
       style="display:inline">
      <g
         transform="matrix(0,-1,-1,0,567.36222,615.36221)"
         id="g1311"
         inkscape:export-filename="envelope02.png"
         inkscape:export-xdpi="90"
         inkscape:export-ydpi="90">
        <g
           id="g3871"
           style="opacity:1">
          <g
             transform="matrix(0.4833595,0,0,0.48335746,254.79594,142.51368)"
             id="layer1-8">
            <g
               transform="matrix(0,-1,-1,0,373.51,516.51)"
               id="g4845-4">
              <path
                 transform="scale(-1,1)"
                 style="opacity:0.31000000999999999;color:#000000;fill:none"
                 d="m -432,351.35999 90,0 0,90 -90,0 z"
                 id="rect4847" />
              <path
                 d="m 426,414.47 c 0,11.383 -9.1052,20.645 -20.429,20.893 -5.2546,0 -9.3558,-1.3777 -13.145,-2.7857 -15.658,-6.6141 -28.737,-19.5 -44.426,-36.214 15.689,-16.714 28.769,-29.6 44.426,-36.214 3.7893,-1.408 7.8905,-2.7857 13.145,-2.7857 11.32,0.25 20.43,9.51 20.43,20.9 0,7.7436 -4.2167,14.498 -10.475,18.107 6.26,3.6 10.48,10.36 10.48,18.1 z"
                 style="color:#000000;fill:#808080"
                 id="path4849"
                 inkscape:connector-curvature="0" />
            </g>
          </g>
        </g>
        <path
           style="font-size:15px;font-style:normal;font-variant:normal;font-weight:normal;font-stretch:normal;text-align:center;line-height:125%;letter-spacing:0px;word-spacing:0px;writing-mode:lr-tb;text-anchor:middle;fill:#808080;fill-opacity:1;stroke:none;display:inline;font-family:Ubuntu;-inkscape-font-specification:Ubuntu"
           d="M 23.375 8.1875 C 15.78741 8.1875 12 8.1778001 12 17 L 12 54 C 12 62.82221 15.78741 62.8125 23.375 62.8125 L 48.65625 62.8125 C 48.450249 61.803387 48.3125 60.723904 48.3125 59.53125 C 48.321717 59.110415 48.321683 58.689775 48.375 58.28125 L 24.8125 58.28125 C 18.79349 58.28125 16.5625 58.27829 16.5625 52.0625 L 16.5625 18.96875 C 16.5625 12.75296 18.79349 12.75 24.8125 12.75 L 49.28125 12.75 C 55.30026 12.75 57.53125 12.75296 57.53125 18.96875 L 57.53125 48.53125 C 58.260706 48.386051 59.009207 48.3125 59.78125 48.3125 L 59.78125 48.28125 C 60.55872 48.28125 61.328288 48.383727 62.0625 48.53125 L 62.0625 17 C 62.0625 8.1778001 58.27508 8.1875 50.6875 8.1875 L 23.375 8.1875 z "
           transform="translate(174,135.36222)"
           id="path4098" />
        <g
           id="g1313"
           transform="matrix(1.875,0,0,1.875,-366,-1657.8169)">
          <rect
             transform="translate(0,804.3622)"
             y="152"
             x="288"
             height="48"
             width="48"
             id="rect1315"
             style="opacity:0.21171169;fill:none;stroke:none" />
        </g>
        <path
           id="rect4847-5"
           d="m 268.50235,180.36223 0,49.50215 -49.50235,0 0,-49.50215 z"
           style="opacity:0;color:#000000;fill:#ffffff;fill-opacity:1;fill-rule:nonzero;stroke:none"
           inkscape:connector-curvature="0" />
      </g>
    </g>
  </g>
</svg>
