<?xml version="1.0" encoding="UTF-8" standalone="no"?>
<!-- Created with Inkscape (http://www.inkscape.org/) -->

<svg
   xmlns:dc="http://purl.org/dc/elements/1.1/"
   xmlns:cc="http://creativecommons.org/ns#"
   xmlns:rdf="http://www.w3.org/1999/02/22-rdf-syntax-ns#"
   xmlns:svg="http://www.w3.org/2000/svg"
   xmlns="http://www.w3.org/2000/svg"
   xmlns:sodipodi="http://sodipodi.sourceforge.net/DTD/sodipodi-0.dtd"
   xmlns:inkscape="http://www.inkscape.org/namespaces/inkscape"
   width="128"
   height="128"
   viewBox="0 0 128 128"
   id="svg4183"
   version="1.1"
   inkscape:version="0.91 r13725"
   sodipodi:docname="nuova.svg">
  <defs
     id="defs4185">
    <clipPath
       clipPathUnits="userSpaceOnUse"
       id="clipPath4783">
      <rect
         style="fill:#ffffff;fill-opacity:1;fill-rule:evenodd;stroke:none;stroke-width:8;stroke-linecap:round;stroke-linejoin:round;stroke-miterlimit:4;stroke-dasharray:none;stroke-opacity:1"
         id="rect4785"
         width="40"
         height="48"
         x="-48"
         y="932.36218"
         rx="4"
         ry="4.00002" />
    </clipPath>
    <clipPath
       clipPathUnits="userSpaceOnUse"
       id="clipPath4801">
      <rect
         style="fill:#ffffff;fill-opacity:1;fill-rule:evenodd;stroke:none;stroke-width:4;stroke-linecap:round;stroke-linejoin:round;stroke-miterlimit:4;stroke-dasharray:none;stroke-opacity:1"
         id="rect4803"
         width="48"
         height="56"
         x="40"
         y="932.36218"
         ry="4.0000172"
         rx="4" />
    </clipPath>
    <mask
       maskUnits="userSpaceOnUse"
       id="mask5202">
      <g
         id="g5204"
         transform="matrix(0.70710678,0.70710678,-0.70710678,0.70710678,717.62268,244.22975)">
        <rect
           ry="4.00002"
           rx="4"
           y="910.82648"
           x="-8.5357122"
           height="136"
           width="96"
           id="rect5206"
           style="fill:#ffffff;fill-opacity:1;fill-rule:evenodd;stroke:#ffffff;stroke-width:8;stroke-linecap:round;stroke-linejoin:round;stroke-miterlimit:4;stroke-dasharray:none;stroke-opacity:1" />
        <rect
           clip-path="none"
           rx="4"
           ry="4.0000172"
           y="932.36218"
           x="40.000004"
           height="56"
           width="48"
           id="rect5208"
           style="fill:#000000;fill-opacity:1;fill-rule:evenodd;stroke:#000000;stroke-width:4;stroke-linecap:round;stroke-linejoin:round;stroke-miterlimit:4;stroke-dasharray:none;stroke-opacity:1" />
      </g>
    </mask>
    <mask
       maskUnits="userSpaceOnUse"
       id="mask5210">
      <g
         id="g5212"
         transform="matrix(0,1,-1,0,1052.3621,924.36219)">
        <rect
           ry="4.00002"
           rx="4"
           y="910.82648"
           x="-8.5357122"
           height="136"
           width="96"
           id="rect5214"
           style="fill:#ffffff;fill-opacity:1;fill-rule:evenodd;stroke:#ffffff;stroke-width:8;stroke-linecap:round;stroke-linejoin:round;stroke-miterlimit:4;stroke-dasharray:none;stroke-opacity:1" />
        <rect
           clip-path="none"
           rx="4"
           ry="4.0000172"
           y="932.36218"
           x="40.000004"
           height="56"
           width="48"
           id="rect5216"
           style="fill:#000000;fill-opacity:1;fill-rule:evenodd;stroke:#000000;stroke-width:4;stroke-linecap:round;stroke-linejoin:round;stroke-miterlimit:4;stroke-dasharray:none;stroke-opacity:1" />
      </g>
    </mask>
    <mask
       maskUnits="userSpaceOnUse"
       id="mask5218">
      <g
         id="g5220"
         transform="matrix(-0.70710678,0.70710678,-0.70710678,-0.70710678,808.1324,1641.985)">
        <rect
           ry="4.00002"
           rx="4"
           y="910.82648"
           x="-8.5357122"
           height="136"
           width="96"
           id="rect5222"
           style="fill:#ffffff;fill-opacity:1;fill-rule:evenodd;stroke:#ffffff;stroke-width:8;stroke-linecap:round;stroke-linejoin:round;stroke-miterlimit:4;stroke-dasharray:none;stroke-opacity:1" />
        <rect
           clip-path="none"
           rx="4"
           ry="4.0000172"
           y="932.36218"
           x="40.000004"
           height="56"
           width="48"
           id="rect5224"
           style="fill:#000000;fill-opacity:1;fill-rule:evenodd;stroke:#000000;stroke-width:4;stroke-linecap:round;stroke-linejoin:round;stroke-miterlimit:4;stroke-dasharray:none;stroke-opacity:1" />
      </g>
    </mask>
    <mask
       maskUnits="userSpaceOnUse"
       id="mask5361">
      <g
         id="g5363"
         transform="matrix(0,1,-1,0,1052.3648,924.36475)">
        <rect
           ry="4.00002"
           rx="4"
           y="924.36218"
           x="-8"
           height="151.99998"
           width="88"
           id="rect5365"
           style="fill:#ffffff;fill-opacity:1;fill-rule:evenodd;stroke:#ffffff;stroke-width:2;stroke-linecap:round;stroke-linejoin:round;stroke-miterlimit:4;stroke-dasharray:none;stroke-opacity:1" />
        <rect
           style="fill:#000000;fill-opacity:1;fill-rule:evenodd;stroke:#000000;stroke-width:4;stroke-linecap:round;stroke-linejoin:round;stroke-miterlimit:4;stroke-dasharray:none;stroke-opacity:1"
           id="rect5367"
           width="48"
           height="54.000019"
           x="40"
           y="928.36218"
           ry="4.0000172"
           rx="4"
           clip-path="none" />
      </g>
    </mask>
    <mask
       maskUnits="userSpaceOnUse"
       id="mask5369">
      <g
         id="g5371"
         transform="matrix(-0.70710678,0.70710678,-0.70710678,-0.70710678,808.13425,1641.9893)">
        <rect
           ry="4.00002"
           rx="4"
           y="924.36218"
           x="-8"
           height="151.99998"
           width="88"
           id="rect5373"
           style="fill:#ffffff;fill-opacity:1;fill-rule:evenodd;stroke:#ffffff;stroke-width:2;stroke-linecap:round;stroke-linejoin:round;stroke-miterlimit:4;stroke-dasharray:none;stroke-opacity:1" />
        <rect
           style="fill:#000000;fill-opacity:1;fill-rule:evenodd;stroke:#000000;stroke-width:4;stroke-linecap:round;stroke-linejoin:round;stroke-miterlimit:4;stroke-dasharray:none;stroke-opacity:1"
           id="rect5375"
           width="48"
           height="54.000019"
           x="40"
           y="928.36218"
           ry="4.0000172"
           rx="4"
           clip-path="none" />
      </g>
    </mask>
    <mask
       maskUnits="userSpaceOnUse"
       id="mask5478">
      <g
         transform="matrix(0.70710678,0.70710678,-0.70710678,0.70710678,717.62464,244.2305)"
         id="g5480">
        <rect
           style="fill:#ffffff;fill-opacity:1;fill-rule:evenodd;stroke:#ffffff;stroke-width:2;stroke-linecap:round;stroke-linejoin:round;stroke-miterlimit:4;stroke-dasharray:none;stroke-opacity:1"
           id="rect5482"
           width="88"
           height="151.99998"
           x="-8"
           y="924.36218"
           rx="4"
           ry="4.00002" />
        <rect
           clip-path="none"
           rx="4"
           ry="4.0000172"
           y="928.36218"
           x="40"
           height="54.000019"
           width="48"
           id="rect5484"
           style="fill:#000000;fill-opacity:1;fill-rule:evenodd;stroke:#000000;stroke-width:4;stroke-linecap:round;stroke-linejoin:round;stroke-miterlimit:4;stroke-dasharray:none;stroke-opacity:1" />
      </g>
    </mask>
    <mask
       maskUnits="userSpaceOnUse"
       id="mask5486">
      <g
         transform="translate(8.7184935e-7,-6.0062692e-6)"
         id="g5488">
        <rect
           style="fill:#ffffff;fill-opacity:1;fill-rule:evenodd;stroke:#ffffff;stroke-width:2;stroke-linecap:round;stroke-linejoin:round;stroke-miterlimit:4;stroke-dasharray:none;stroke-opacity:1"
           id="rect5490"
           width="88"
           height="151.99998"
           x="-8"
           y="924.36218"
           rx="4"
           ry="4.00002" />
        <rect
           clip-path="none"
           rx="4"
           ry="4.0000172"
           y="928.36218"
           x="40"
           height="54.000019"
           width="48"
           id="rect5492"
           style="fill:#000000;fill-opacity:1;fill-rule:evenodd;stroke:#000000;stroke-width:4;stroke-linecap:round;stroke-linejoin:round;stroke-miterlimit:4;stroke-dasharray:none;stroke-opacity:1" />
      </g>
    </mask>
    <mask
       maskUnits="userSpaceOnUse"
       id="mask5494">
      <g
         transform="translate(8.7184935e-7,-6.0062692e-6)"
         id="g5496">
        <rect
           style="fill:#ffffff;fill-opacity:1;fill-rule:evenodd;stroke:#ffffff;stroke-width:2;stroke-linecap:round;stroke-linejoin:round;stroke-miterlimit:4;stroke-dasharray:none;stroke-opacity:1"
           id="rect5498"
           width="88"
           height="151.99998"
           x="-8"
           y="924.36218"
           rx="4"
           ry="4.00002" />
        <rect
           clip-path="none"
           rx="4"
           ry="4.0000172"
           y="928.36218"
           x="40"
           height="54.000019"
           width="48"
           id="rect5500"
           style="fill:#000000;fill-opacity:1;fill-rule:evenodd;stroke:#000000;stroke-width:4;stroke-linecap:round;stroke-linejoin:round;stroke-miterlimit:4;stroke-dasharray:none;stroke-opacity:1" />
      </g>
    </mask>
  </defs>
  <sodipodi:namedview
     id="base"
     pagecolor="#f1e0cd"
     bordercolor="#666666"
     borderopacity="1.0"
     inkscape:pageopacity="0"
     inkscape:pageshadow="2"
     inkscape:zoom="5.6568543"
     inkscape:cx="15.044471"
     inkscape:cy="52.702458"
     inkscape:document-units="px"
     inkscape:current-layer="layer1"
     showgrid="true"
     units="px"
     inkscape:window-width="1871"
     inkscape:window-height="1056"
     inkscape:window-x="49"
     inkscape:window-y="24"
     inkscape:window-maximized="1">
    <inkscape:grid
       type="xygrid"
       id="grid4731"
       empspacing="8" />
  </sodipodi:namedview>
  <metadata
     id="metadata4188">
    <rdf:RDF>
      <cc:Work
         rdf:about="">
        <dc:format>image/svg+xml</dc:format>
        <dc:type
           rdf:resource="http://purl.org/dc/dcmitype/StillImage" />
        <dc:title></dc:title>
      </cc:Work>
    </rdf:RDF>
  </metadata>
  <g
     inkscape:label="Layer 1"
     inkscape:groupmode="layer"
     id="layer1"
     transform="translate(0,-924.3622)">
    <g
       id="g5467">
      <rect
         clip-path="none"
         rx="4"
         ry="4.0000172"
         y="928.36218"
         x="40"
         height="54.000019"
         width="48"
         id="rect4742"
         style="fill:#ffffff;fill-opacity:1;fill-rule:evenodd;stroke:#4685d9;stroke-width:4;stroke-linecap:round;stroke-linejoin:round;stroke-miterlimit:4;stroke-dasharray:none;stroke-opacity:1" />
      <rect
         transform="translate(0,-3.9999826)"
         clip-path="url(#clipPath4801)"
         ry="2"
         rx="2"
         y="948.36218"
         x="44"
         height="34"
         width="40"
         id="rect4744"
         style="fill:#f3e465;fill-opacity:1;fill-rule:evenodd;stroke:none;stroke-width:8;stroke-linecap:round;stroke-linejoin:round;stroke-miterlimit:4;stroke-dasharray:none;stroke-opacity:1" />
    </g>
    <g
       id="g5471">
      <rect
         transform="matrix(0.70710678,0.70710678,-0.70710678,0.70710678,0,0)"
         style="fill:#ffffff;fill-opacity:1;fill-rule:evenodd;stroke:#4685d9;stroke-width:4;stroke-linecap:round;stroke-linejoin:round;stroke-miterlimit:4;stroke-dasharray:none;stroke-opacity:1"
         id="rect5291"
         width="48"
         height="54.000019"
         x="720.13428"
         y="593.62201"
         ry="4.0000172"
         rx="4"
         clip-path="none" />
      <rect
         style="fill:#a3f16f;fill-opacity:1;fill-rule:evenodd;stroke:none;stroke-width:8;stroke-linecap:round;stroke-linejoin:round;stroke-miterlimit:4;stroke-dasharray:none;stroke-opacity:1"
         id="rect5293"
         width="40"
         height="34"
         x="44"
         y="948.36218"
         rx="2"
         ry="2"
         clip-path="url(#clipPath4801)"
         transform="matrix(0.70710678,0.70710678,-0.70710678,0.70710678,720.45299,241.40209)" />
    </g>
    <rect
       style="fill:#ffffff;fill-opacity:1;fill-rule:evenodd;stroke:#4685d9;stroke-width:4;stroke-linecap:round;stroke-linejoin:round;stroke-miterlimit:4;stroke-dasharray:none;stroke-opacity:1"
       id="rect5297"
       width="48"
       height="54.000019"
       x="964.36475"
       y="-124.00252"
       ry="4.0000172"
       rx="4"
       clip-path="none"
       transform="matrix(0,1,-1,0,0,0)" />
    <rect
       style="fill:#62bb79;fill-opacity:1;fill-rule:evenodd;stroke:none;stroke-width:8;stroke-linecap:round;stroke-linejoin:round;stroke-miterlimit:4;stroke-dasharray:none;stroke-opacity:1"
       id="rect5299"
       width="40"
       height="34"
       x="44"
       y="948.36218"
       rx="2"
       ry="2"
       clip-path="url(#clipPath4801)"
       transform="matrix(0,1,-1,0,1056.3647,924.36475)" />
    <rect
       clip-path="none"
       rx="4"
       ry="4.0000172"
       y="-804.13678"
       x="629.62457"
       height="54.000019"
       width="48"
       id="rect5303"
       style="fill:#ffffff;fill-opacity:1;fill-rule:evenodd;stroke:#4685d9;stroke-width:4;stroke-linecap:round;stroke-linejoin:round;stroke-miterlimit:4;stroke-dasharray:none;stroke-opacity:1"
       transform="matrix(-0.70710678,0.70710678,-0.70710678,-0.70710678,0,0)" />
    <rect
       transform="matrix(-0.70710678,0.70710678,-0.70710678,-0.70710678,810.96263,1644.8177)"
       clip-path="url(#clipPath4801)"
       ry="2"
       rx="2"
       y="948.36218"
       x="44"
       height="34"
       width="40"
       id="rect5305"
       style="fill:#51a9ef;fill-opacity:1;fill-rule:evenodd;stroke:none;stroke-width:8;stroke-linecap:round;stroke-linejoin:round;stroke-miterlimit:4;stroke-dasharray:none;stroke-opacity:1" />
    <g
       id="g5455">
      <rect
         transform="scale(-1,-1)"
         clip-path="none"
         rx="4"
         ry="4.0000172"
         y="-1048.3673"
         x="-88"
         height="54.000019"
         width="48"
         id="rect5309"
         style="fill:#ffffff;fill-opacity:1;fill-rule:evenodd;stroke:#4685d9;stroke-width:4;stroke-linecap:round;stroke-linejoin:round;stroke-miterlimit:4;stroke-dasharray:none;stroke-opacity:1" />
      <rect
         transform="matrix(-1,0,0,-1,128,1980.7295)"
         clip-path="url(#clipPath4801)"
         ry="2"
         rx="2"
         y="948.36218"
         x="44"
         height="34"
         width="40"
         id="rect5311"
         style="fill:#bb67ec;fill-opacity:1;fill-rule:evenodd;stroke:none;stroke-width:8;stroke-linecap:round;stroke-linejoin:round;stroke-miterlimit:4;stroke-dasharray:none;stroke-opacity:1" />
    </g>
    <g
       id="g5449"
       mask="url(#mask5494)">
      <rect
         transform="matrix(-0.70710678,-0.70710678,0.70710678,-0.70710678,0,0)"
         style="fill:#ffffff;fill-opacity:1;fill-rule:evenodd;stroke:#4685d9;stroke-width:4;stroke-linecap:round;stroke-linejoin:round;stroke-miterlimit:4;stroke-dasharray:none;stroke-opacity:1"
         id="rect5315"
         width="48"
         height="54.000019"
         x="-768.13428"
         y="-713.62714"
         ry="4.0000172"
         rx="4"
         clip-path="none" />
      <rect
         style="fill:#e96bb3;fill-opacity:1;fill-rule:evenodd;stroke:none;stroke-width:8;stroke-linecap:round;stroke-linejoin:round;stroke-miterlimit:4;stroke-dasharray:none;stroke-opacity:1"
         id="rect5317"
         width="40"
         height="34"
         x="44"
         y="948.36218"
         rx="2"
         ry="2"
         clip-path="url(#clipPath4801)"
         transform="matrix(-0.70710678,-0.70710678,0.70710678,-0.70710678,-592.45299,1735.3274)" />
    </g>
    <g
       id="g5443"
       mask="url(#mask5486)">
      <rect
         transform="matrix(0,-1,1,0,0,0)"
         clip-path="none"
         rx="4"
         ry="4.0000172"
         y="3.9974327"
         x="-1012.3648"
         height="54.000019"
         width="48"
         id="rect5321"
         style="fill:#ffffff;fill-opacity:1;fill-rule:evenodd;stroke:#4685d9;stroke-width:4;stroke-linecap:round;stroke-linejoin:round;stroke-miterlimit:4;stroke-dasharray:none;stroke-opacity:1" />
      <rect
         transform="matrix(0,-1,1,0,-928.36473,1052.3648)"
         clip-path="url(#clipPath4801)"
         ry="2"
         rx="2"
         y="948.36218"
         x="44"
         height="34"
         width="40"
         id="rect5323"
         style="fill:#e96a6a;fill-opacity:1;fill-rule:evenodd;stroke:none;stroke-width:8;stroke-linecap:round;stroke-linejoin:round;stroke-miterlimit:4;stroke-dasharray:none;stroke-opacity:1" />
    </g>
    <g
       id="g5325"
       transform="matrix(0.70710678,-0.70710678,0.70710678,0.70710678,-680.13429,334.7402)"
       inkscape:transform-center-y="-23.336301"
       inkscape:transform-center-x="23.336372"
       mask="url(#mask5478)">
      <rect
         style="fill:#ffffff;fill-opacity:1;fill-rule:evenodd;stroke:#4685d9;stroke-width:4;stroke-linecap:round;stroke-linejoin:round;stroke-miterlimit:4;stroke-dasharray:none;stroke-opacity:1"
         id="rect5327"
         width="48"
         height="54.000019"
         x="40"
         y="928.36218"
         ry="4.0000172"
         rx="4"
         clip-path="none" />
      <rect
         style="fill:#eea452;fill-opacity:1;fill-rule:evenodd;stroke:none;stroke-width:8;stroke-linecap:round;stroke-linejoin:round;stroke-miterlimit:4;stroke-dasharray:none;stroke-opacity:1"
         id="rect5329"
         width="40"
         height="34"
         x="44"
         y="948.36218"
         rx="2"
         ry="2"
         clip-path="url(#clipPath4801)"
         transform="translate(0,-3.9999826)" />
    </g>
  </g>
</svg>
