<?xml version="1.0" encoding="UTF-8" standalone="no"?>
<!-- Created with Inkscape (http://www.inkscape.org/) -->

<svg
   xmlns:dc="http://purl.org/dc/elements/1.1/"
   xmlns:cc="http://creativecommons.org/ns#"
   xmlns:rdf="http://www.w3.org/1999/02/22-rdf-syntax-ns#"
   xmlns:svg="http://www.w3.org/2000/svg"
   xmlns="http://www.w3.org/2000/svg"
   xmlns:xlink="http://www.w3.org/1999/xlink"
   xmlns:sodipodi="http://sodipodi.sourceforge.net/DTD/sodipodi-0.dtd"
   xmlns:inkscape="http://www.inkscape.org/namespaces/inkscape"
   width="64"
   height="64"
   viewBox="0 0 64 64.000001"
   id="svg2"
   version="1.1"
   inkscape:version="0.91 r13725"
   sodipodi:docname="rating_gold.svg">
  <defs
     id="defs4">
    <linearGradient
       inkscape:collect="always"
       id="gold_star-6">
      <stop
         style="stop-color:#fffbca;stop-opacity:1"
         offset="0"
         id="stop4160" />
      <stop
         style="stop-color:#e7a90c;stop-opacity:1"
         offset="1"
         id="stop4162" />
    </linearGradient>
    <radialGradient
       inkscape:collect="always"
       xlink:href="#gold_star-6"
       id="radialGradient4410"
       gradientUnits="userSpaceOnUse"
       gradientTransform="matrix(1,0,0,0.9536667,0,47.152869)"
       cx="32"
       cy="1016.2977"
       fx="32"
       fy="1016.2977"
       r="28.12941" />
  </defs>
  <sodipodi:namedview
     id="base"
     pagecolor="#ffffff"
     bordercolor="#666666"
     borderopacity="1.0"
     inkscape:pageopacity="0.0"
     inkscape:pageshadow="2"
     inkscape:zoom="3.959798"
     inkscape:cx="122.42955"
     inkscape:cy="64.013734"
     inkscape:document-units="px"
     inkscape:current-layer="layer1"
     showgrid="true"
     units="px"
     inkscape:window-width="1871"
     inkscape:window-height="1056"
     inkscape:window-x="49"
     inkscape:window-y="24"
     inkscape:window-maximized="1">
    <inkscape:grid
       type="xygrid"
       id="grid4136"
       empspacing="4" />
  </sodipodi:namedview>
  <metadata
     id="metadata7">
    <rdf:RDF>
      <cc:Work
         rdf:about="">
        <dc:format>image/svg+xml</dc:format>
        <dc:type
           rdf:resource="http://purl.org/dc/dcmitype/StillImage" />
        <dc:title></dc:title>
      </cc:Work>
    </rdf:RDF>
  </metadata>
  <g
     inkscape:label="Layer 1"
     inkscape:groupmode="layer"
     id="layer1"
     transform="translate(0,-988.36216)">
    <path
       sodipodi:type="star"
       style="fill:url(#radialGradient4410);fill-opacity:1;fill-rule:evenodd;stroke:#ff9400;stroke-width:3;stroke-linecap:round;stroke-linejoin:round;stroke-miterlimit:4;stroke-dasharray:none;stroke-opacity:1"
       id="path4149"
       sodipodi:sides="5"
       sodipodi:cx="32"
       sodipodi:cy="1020.3622"
       sodipodi:r1="28"
       sodipodi:r2="14"
       sodipodi:arg1="-1.5707963"
       sodipodi:arg2="-0.9424778"
       inkscape:flatsided="false"
       inkscape:rounded="0"
       inkscape:randomized="0"
       d="m 32.000001,992.36218 8.228992,16.67372 18.40059,2.6738 -13.314792,12.9787 3.143195,18.3263 L 32,1034.3622 l -16.457988,8.6525 3.143197,-18.3263 -13.3147912,-12.9787 18.4005882,-2.6738 z"
       inkscape:transform-center-y="-2.6737621"
       inkscape:tile-cx="32"
       inkscape:tile-cy="32.000023"
       inkscape:tile-w="56.25882"
       inkscape:tile-h="53.652163"
       inkscape:tile-x0="3.8705901"
       inkscape:tile-y0="2.5002115" />
  </g>
</svg>
